Peptidase MEROPS ID,Concordant,Total,Mean probability,Accuracy
T02.004,1,1,0.9257235317786788,1.0
S01.199,1,1,0.5144121154281883,1.0
M03.006,1,1,0.6744801930203437,1.0
S01.214,2,2,0.8302709449294685,1.0
S01.215,4,4,0.7244527245971039,1.0
C85.008,1,1,0.6617716513856802,1.0
C85.007,1,1,0.6617716513856802,1.0
C78.002,1,1,0.5623736263521478,1.0
C78.001,1,1,0.5623736263521478,1.0
C65.001,1,1,0.6617716513856802,1.0
C64.004,1,1,0.6617716513856802,1.0
S01.218,1,1,0.6673095316025853,1.0
C48.008,1,1,0.7748835019147521,1.0
C48.002,4,4,0.6991249875627981,1.0
C46.004,1,1,0.5367773283433109,1.0
C19.034,1,1,0.6617716513856802,1.0
M12.214,3,3,0.649195981975684,1.0
S01.211,2,2,0.7273149096453083,1.0
S01.198,2,2,0.6100699441221402,1.0
C19.013,1,1,0.6617716513856802,1.0
S01.194,1,1,0.669332116208955,1.0
M12.241,1,1,0.5344683993337243,1.0
M12.018,1,1,0.5785119888281652,1.0
M12.016,1,1,0.5310409700271351,1.0
M12.301,1,1,0.647618815352175,1.0
M13.090,1,1,0.6716584966461125,1.0
M41.006,1,1,0.6440846202730878,1.0
M67.002,1,1,0.6788328977365271,1.0
S01.020,5,5,0.6467512432785653,1.0
S01.034,3,3,0.6380399631467254,1.0
S01.079,1,1,0.8916263299875028,1.0
S01.081,1,1,0.886993407381662,1.0
S01.174,2,2,0.5227587025923423,1.0
S01.189,1,1,0.7619378345719876,1.0
S01.192,1,1,0.5454241211682189,1.0
S01.193,3,3,0.5617799969602406,1.0
C19.016,1,1,0.5333274551171222,1.0
C19.017,2,2,0.6349844542207448,1.0
S01.223,1,1,0.7763543817791555,1.0
C02.007,1,1,0.7909396744573799,1.0
S60.001,1,1,0.7271948759981848,1.0
S54.009,1,1,0.5223198233117927,1.0
A01.070,1,1,0.6464580372757618,1.0
A28.004,1,1,0.5023257124819624,1.0
S08.063,5,5,0.6270874487794588,1.0
S08.039,1,1,0.6083035958494554,1.0
C19.001,1,1,0.6617716513856802,1.0
S01.257,2,2,0.7373749569573873,1.0
S01.252,1,1,0.7059583825080153,1.0
S01.247,1,1,0.8916263299875028,1.0
S01.244,2,2,0.7864062983585041,1.0
M12.224,2,2,0.6346376034257708,1.0
C14.010,1,1,0.6690953137355422,1.0
C14.006,44,44,0.8612782531548459,1.0
C14.011,1,1,0.7711570233387186,1.0
C14.026,2,2,0.6979840590121544,1.0
C14.009,12,12,0.8539256144883773,1.0
C14.007,3,3,0.7176086697315415,1.0
C14.018,2,2,0.8322637697270048,1.0
C14.003,117,118,0.826614408903829,0.9915254237288136
C14.005,217,220,0.863474234749653,0.9863636363636363
C14.004,80,84,0.7786246763075854,0.9523809523809523
S08.075,19,20,0.692003903656472,0.95
S08.074,19,20,0.6849419912142959,0.95
S08.071,35,37,0.6686283457384452,0.9459459459459459
S01.010,300,322,0.7647159072602131,0.9316770186335404
C14.001,38,41,0.7931130130044178,0.926829268292683
S08.077,21,23,0.6861172813155243,0.9130434782608695
S08.076,21,23,0.6756855685170987,0.9130434782608695
C13.004,387,427,0.6714077623098993,0.9063231850117096
S01.047,8,9,0.6256686255793307,0.8888888888888888
S08.073,33,38,0.667502960997806,0.868421052631579
S01.216,13,15,0.6174540281050891,0.8666666666666667
T01.010,5,6,0.7074974666617555,0.8333333333333334
M10.013,19,23,0.7333837586720608,0.8260869565217391
C01.034,471,575,0.6403370203545069,0.8191304347826087
S01.021,9,11,0.6110108411709325,0.8181818181818182
S01.229,4,5,0.5905093745349935,0.8
S01.306,4,5,0.6738437483855751,0.8
S01.302,8,10,0.6660732596218881,0.8
M13.002,4,5,0.6273429161552018,0.8
M10.007,4,5,0.589519372703955,0.8
S01.135,46,58,0.6207471277898284,0.7931034482758621
S01.017,11,14,0.6211703313115499,0.7857142857142857
C01.009,235,300,0.636214841937863,0.7833333333333333
M10.008,32,41,0.6257417611430368,0.7804878048780488
S01.224,10,13,0.6532663087537467,0.7692307692307693
C01.036,313,410,0.6352515887369811,0.7634146341463415
S01.217,18,24,0.6090308796221829,0.75
M13.003,3,4,0.5820992467929387,0.75
M12.005,3,4,0.5431140470618994,0.75
S01.143,3,4,0.6793182892088562,0.75
M10.003,353,471,0.6362801183872369,0.7494692144373672
C01.032,406,543,0.6335911545461673,0.7476979742173112
C01.060,75,101,0.6480241010478435,0.7425742574257426
M10.005,337,454,0.6264277729969528,0.7422907488986784
S01.308,13,18,0.6353307538808827,0.7222222222222222
S01.236,10,14,0.6788488387071554,0.7142857142857143
M10.009,25,35,0.6814603089962448,0.7142857142857143
S01.251,19,27,0.6205496760006196,0.7037037037037037
S08.072,9,13,0.6294116134880477,0.6923076923076923
A01.010,188,275,0.6101175066821475,0.6836363636363636
S01.146,2,3,0.6452125019093321,0.6666666666666666
C02.004,4,6,0.6098658584488673,0.6666666666666666
S01.161,12,18,0.6229463012375152,0.6666666666666666
M10.002,10,15,0.6868379337637217,0.6666666666666666
M10.004,41,62,0.6686394899997202,0.6612903225806451
A01.009,86,134,0.6180214802422787,0.6417910447761194
S01.029,7,11,0.6417587584480597,0.6363636363636364
S01.139,86,136,0.603054462212642,0.6323529411764706
S01.072,12,19,0.6281553993628245,0.631578947368421
S01.212,5,8,0.6525098534588334,0.625
S01.156,3,5,0.6003514145509409,0.6
S01.233,9,15,0.6202016729185598,0.6
C02.001,36,60,0.6403566941555654,0.6
M12.004,108,183,0.6253528984135399,0.5901639344262295
S01.162,4,7,0.709200631826157,0.5714285714285714
M12.002,91,168,0.623169187097142,0.5416666666666666
A01.001,40,75,0.6148916752521756,0.5333333333333333
C02.002,36,69,0.6352981633610479,0.5217391304347826
C13.005,1,2,0.6279572658969426,0.5
M10.001,6,12,0.6467185821297871,0.5
M12.222,2,4,0.5762856326309821,0.5
S16.002,2,4,0.580521015552967,0.5
A01.041,4,8,0.6777929362020823,0.5
A01.071,1,2,0.5354736696892942,0.5
A22.003,1,2,0.5885602805068164,0.5
M13.008,1,2,0.6714003153053476,0.5
S01.300,2,4,0.6971407272048434,0.5
S01.213,1,2,0.6832670947833108,0.5
S01.152,1,2,0.5641094458087492,0.5
M16.009,3,6,0.6127936801642043,0.5
S01.277,1,2,0.619744679345637,0.5
S26.010,34,69,0.5970488815932897,0.4927536231884058
M10.014,13,27,0.6108347837518211,0.48148148148148145
M16.003,7,15,0.599376732856314,0.4666666666666667
M12.217,6,13,0.605422135119074,0.46153846153846156
M10.019,4,9,0.6172021377063701,0.4444444444444444
S01.133,17,40,0.6161123668277521,0.425
A01.003,4,10,0.601984192129921,0.4
M10.016,2,5,0.5903486436959154,0.4
S01.140,9,26,0.5938428425900134,0.34615384615384615
S01.278,4,12,0.6304365296018983,0.3333333333333333
S01.033,1,3,0.7046015826099997,0.3333333333333333
T01.011,2,6,0.6467420311793185,0.3333333333333333
M03.001,1,3,0.6223935223287467,0.3333333333333333
M13.001,3,10,0.6395349275771902,0.3
M12.225,2,7,0.6337445188847223,0.2857142857142857
M12.221,3,12,0.6405160449216013,0.25
T01.012,10,40,0.6444275541542361,0.25
A01.004,1,4,0.5829223584561722,0.25
S01.153,2,9,0.6867219821658676,0.2222222222222222
S01.131,14,67,0.6672983147303087,0.208955223880597
M10.015,1,5,0.6218603875132436,0.2
C01.070,1,5,0.6272424134817711,0.2
M10.024,1,5,0.5888917220142259,0.2
M16.002,2,12,0.6294603445390533,0.16666666666666666
S01.134,1,7,0.7069347278575141,0.14285714285714285
M12.210,1,11,0.6195711880345078,0.09090909090909091
M12.244,0,1,0.5115907767627966,0.0
S09.001,0,3,0.5799883620636329,0.0
S60.972,0,1,0.6704880882468923,0.0
S09.004,0,1,0.5972699510671644,0.0
S14.003,0,1,0.6789892238072386,0.0
M12.208,0,2,0.6190511489875365,0.0
A22.001,0,4,0.6619798264206349,0.0
M12.219,0,2,0.6394682669250682,0.0
M87.001,0,3,0.678224327515736,0.0
A22.004,0,1,0.6879906076465674,0.0
M13.091,0,1,0.6917324579123146,0.0
A22.007,0,1,0.6879906076465674,0.0
M50.001,0,1,0.7370649158955075,0.0
M10.029,0,2,0.5600745455202691,0.0
S01.157,0,4,0.5924520998347523,0.0
M10.017,0,3,0.608193463198134,0.0
S01.258,0,1,0.5941839950018161,0.0
S01.147,0,1,0.5582312956651196,0.0
C19.010,0,1,0.5916932564984037,0.0
C54.003,0,1,0.6095275290155316,0.0
C56.002,0,1,0.582464374720567,0.0
M02.004,0,1,0.5045671750323918,0.0
M10.006,0,1,0.6068805171007186,0.0
